…
```
## # A tibble: 82 x 7
## # Groups:   cultivo_de_cosecha, Zona, campana [26]
##    cultivo_de_cosecha Zona      campana variedad var_sup rinde_medio porcent
##    <fct>              <fct>     <fct>   <fct>      <dbl>       <dbl>   <dbl>
##  1 Cebada             Costa     17-18   ANDREIA     500        5400     86.2
##  2 Cebada             Costa     17-18   SHAKIRA      80        6100     13.8
##  3 Cebada             Costa     18-19   ANDREIA    2014        5500     88.8
##  4 Cebada             Costa     18-19   SHAKIRA     253        3920.    11.2
##  5 Cebada             Costa     19-20   ANDREIA     860        5700     75.0
##  6 Cebada             Costa     19-20   SHAKIRA     287        5536     25.0
##  7 Cebada             Costa     20-21   ANDREIA     319        6225    100  
##  8 Cebada             Madariaga 18-19   ANDREIA     488.       4790.    88.1
##  9 Cebada             Madariaga 18-19   OVERTURE     66        5665     11.9
## 10 Cebada             Madariaga 19-20   ANDREIA     118.       6024     60.6
## # … with 72 more rows
```
…
