8 Malezas | Modelo de análisis de campaña
…
                        by = c(maleza = "n_comun"), max_dist = 1) %>%
  mutate(maleza = coalesce(n_comun.x,n_comun.y )) %>%
         select(campana:nivel, maleza)%>%
  group_by(campana, Zona, nivel, maleza)%>%
  summarise(var_sup = sum(superficie, na.rm = TRUE))%>%  
  group_by(campana, Zona, nivel) %>% 
  mutate(Zona= as.factor(Zona),
         porcent=var_sup/sum(var_sup)*100, 
         nivel = recode(nivel, especie_principal = "1° Especie", 
                        especie_secundaria = "2° Especie", 
                        especie_terciaria= "3° Especie")) %>% 
  drop_na(maleza)
herb_long

## # A tibble: 98 x 6
## # Groups:   campana, Zona, nivel [26]
##    campana Zona  nivel      maleza      var_sup porcent
##    <chr>   <fct> <chr>      <chr>         <dbl>   <dbl>
##  1 18-19   Costa 1° Especie AVENA NEGRA     419  11.9  
##  2 18-19   Costa 1° Especie CERRAJA         415  11.8  
##  3 18-19   Costa 1° Especie CRUCIFERA      1967  55.8  
##  4 18-19   Costa 1° Especie RAIGRAS         655  18.6  
##  5 18-19   Costa 1° Especie RAMA NEGRA       38   1.08 
##  6 18-19   Costa 1° Especie SANGUINARIA      30   0.851
##  7 18-19   Costa 2° Especie AVENA NEGRA     299   7.41 
##  8 18-19   Costa 2° Especie CERRAJA         661  16.4  
##  9 18-19   Costa 2° Especie CRUCIFERA      1353  33.5  
## 10 18-19   Costa 2° Especie RAIGRAS        1142  28.3  
## # … with 88 more rows
…
