7 Protección | Modelo de análisis de campaña
…
Los que aplican 1 solo fungi: en que estadio lo hacen?

require(webr)
dfungi %>% 
  mutate(across(contains(".c"), ~.*dosis))

## # A tibble: 35 x 18
##    Cultivo Empresa producto dosis activos grupos DMI_1 DMI_2 QoI_1 SDHI_1 SDHI_2
##    <chr>   <chr>   <chr>    <dbl>   <dbl> <chr>  <chr> <chr> <chr> <chr>  <chr> 
##  1 Cebada  BASF    ALLEGRO   0.75       2 TE     Epox… <NA>  kres… <NA>   <NA>  
##  2 Cebada  Adama   ALMAGOR   1.25       3 TTE    Tebu… Proc… Azox… <NA>   <NA>  
##  3 Cebada  Syngen… AMISTAR…  0.4        2 TE     Cypr… <NA>  Azox… <NA>   <NA>  
##  4 Trigo   Genéri… AZOXY_P…  0.4        2 TE     Cypr… <NA>  Azox… <NA>   <NA>  
##  5 Cebada  Zamba   CINCHA_…  0.4        2 TE     Cypr… <NA>  Azox… <NA>   <NA>  
##  6 Cebada  Bayer   CRIPTON   0.6        2 TE     Prot… <NA>  Trif… <NA>   <NA>  
##  7 Cebada  Bayer   CRIPTON…  0.6        3 TEC    Prot… <NA>  Trif… Bixaf… <NA>  
##  8 Trigo   Adama   CUSTODIA  0.7        2 TE     Tebu… <NA>  Azox… <NA>   <NA>  
##  9 Trigo   Syngen… DACONIL   2          1 O      <NA>  <NA>  <NA>  <NA>   <NA>  
## 10 Cebada  BASF    DUETT_P…  1.2        2 TT     Epox… Metc… <NA>  <NA>   <NA>  
## # … with 25 more rows, and 7 more variables: contacto <chr>, c.DMI1 <dbl>,
## #   c.DMI2 <dbl>, c.QoI <dbl>, c.SDHI1 <dbl>, c.SDHI2 <dbl>, c.contacto <dbl>
…
